{
  "type": "module",
  "name": "sesandroidapp",
  "version": "4.10.5",
  "revision": null,
  "path": "application\/modules\/Sesandroidapp",
  "repository": null,
  "sku": null,
  "date": "Thu, 19 Sep 2019 13:51:09 +0000",
  "title": "SES - Native Android Mobile App Plugin",
  "description": "SES - Native Android Mobile App Plugin",
  "thumb": null,
  "developer": null,
  "authors": [
    "<a href=\"https:\/\/socialnetworking.solutions\" style=\"text-decoration:underline;\" target=\"_blank\">SocialNetworking.Solutions<\/a>"
  ],
  "meta": {
    "date": "Thu, 19 Sep 2019 13:51:09 +0000",
    "title": "SES - Native Android Mobile App Plugin",
    "description": "SES - Native Android Mobile App Plugin",
    "developer": null,
    "authors": [
      "<a href=\"https:\/\/socialnetworking.solutions\" style=\"text-decoration:underline;\" target=\"_blank\">SocialNetworking.Solutions<\/a>"
    ],
    "changeLog": null
  },
  "actions": [
    "install",
    "upgrade",
    "refresh",
    "enable",
    "disable"
  ],
  "callback": {
    "path": "application\/modules\/Sesandroidapp\/settings\/install.php",
    "class": "Sesandroidapp_Installer",
    "priority": 100
  },
  "dependencies": {
    "module-core": {
      "type": "module",
      "name": "core",
      "guid": "module-core",
      "minVersion": "4.10.5",
      "maxVersion": null,
      "excludeExcept": null
    }
  },
  "tests": [
    
  ],
  "permissions": [
    
  ],
  "structure": {
    "application\/modules\/Sesandroidapp": {
      "type": "directory",
      "path": "application\/modules\/Sesandroidapp",
      "structure": [
        {
          "path": "Api",
          "dir": true,
          "file": false,
          "perms": "0777",
          "size": 0,
          "sha1": null
        },
        {
          "path": "Api\/Core.php",
          "dir": false,
          "file": true,
          "perms": "0666",
          "size": 6003,
          "sha1": "675744cdc364033ac33b5a57e971ce4725066b18"
        },
        {
          "path": "Bootstrap.php",
          "dir": false,
          "file": true,
          "perms": "0666",
          "size": 597,
          "sha1": "87cafe09ffab26858dc8d705d4e8f3abe1081528"
        },
        {
          "path": "controllers",
          "dir": true,
          "file": false,
          "perms": "0777",
          "size": 4096,
          "sha1": null
        },
        {
          "path": "controllers\/AdminGraphicController.php",
          "dir": false,
          "file": true,
          "perms": "0666",
          "size": 5361,
          "sha1": "7078bfad898b54fa11dff2f136d83215c30009b5"
        },
        {
          "path": "controllers\/AdminMenuController.php",
          "dir": false,
          "file": true,
          "perms": "0666",
          "size": 4656,
          "sha1": "dbc255e1c1e5b8c04a05710cad561f6c65bd6290"
        },
        {
          "path": "controllers\/AdminPushnotificationController.php",
          "dir": false,
          "file": true,
          "perms": "0666",
          "size": 10012,
          "sha1": "ecfe13cbee9489d3062efe927aaa46ab4b35b0c8"
        },
        {
          "path": "controllers\/AdminSettingsController.php",
          "dir": false,
          "file": true,
          "perms": "0666",
          "size": 5221,
          "sha1": "f4179a7e94da471ae074a190373f30a97af18d05"
        },
        {
          "path": "controllers\/AdminSlideshowController.php",
          "dir": false,
          "file": true,
          "perms": "0666",
          "size": 5860,
          "sha1": "cd78dad147c84eb46ca917272d3b1e6a2009d3c8"
        },
        {
          "path": "controllers\/AdminSubscribersController.php",
          "dir": false,
          "file": true,
          "perms": "0666",
          "size": 3941,
          "sha1": "bd3897e0a529c0b8c277a8494b4157cd199dbd52"
        },
        {
          "path": "controllers\/AdminThemeController.php",
          "dir": false,
          "file": true,
          "perms": "0666",
          "size": 6779,
          "sha1": "1b7cb0b8e6ce743d189d76b1e35653aa176e7d2f"
        },
        {
          "path": "controllers\/Checklicense.php",
          "dir": false,
          "file": true,
          "perms": "0666",
          "size": 3159,
          "sha1": "9090decad7412d9462c7f626de4eb99e3103a405"
        },
        {
          "path": "controllers\/defaultsettings.php",
          "dir": false,
          "file": true,
          "perms": "0666",
          "size": 6000,
          "sha1": "c881f3dec69b73d1216d50880d8f1b1e01a17839"
        },
        {
          "path": "controllers\/IndexController.php",
          "dir": false,
          "file": true,
          "perms": "0666",
          "size": 532,
          "sha1": "19965779fcb986c9eb7929eadda3694984b2f645"
        },
        {
          "path": "controllers\/License.php",
          "dir": false,
          "file": true,
          "perms": "0666",
          "size": 10815,
          "sha1": "bab061a6f575f7f9799c4a287aa40afc197d9a4a"
        },
        {
          "path": "externals",
          "dir": true,
          "file": false,
          "perms": "0777",
          "size": 0,
          "sha1": null
        },
        {
          "path": "externals\/.htaccess",
          "dir": false,
          "file": true,
          "perms": "0666",
          "size": 147,
          "sha1": "9f1638a8edbe1c5d28789e017fb35b2f2465f01e"
        },
        {
          "path": "externals\/images",
          "dir": true,
          "file": false,
          "perms": "0777",
          "size": 4096,
          "sha1": null
        },
        {
          "path": "externals\/images\/.htempty",
          "dir": false,
          "file": true,
          "perms": "0666",
          "size": 0,
          "sha1": "da39a3ee5e6b4b0d3255bfef95601890afd80709"
        },
        {
          "path": "externals\/images\/color-scheme",
          "dir": true,
          "file": false,
          "perms": "0777",
          "size": 4096,
          "sha1": null
        },
        {
          "path": "externals\/images\/color-scheme\/1.png",
          "dir": false,
          "file": true,
          "perms": "0666",
          "size": 103993,
          "sha1": "9bb122c0685436c98cab7bf458050e80f30254dc"
        },
        {
          "path": "externals\/images\/color-scheme\/2.png",
          "dir": false,
          "file": true,
          "perms": "0666",
          "size": 100111,
          "sha1": "90f458041fb444fd84a125d7ecb4d75226147b85"
        },
        {
          "path": "externals\/images\/color-scheme\/3.png",
          "dir": false,
          "file": true,
          "perms": "0666",
          "size": 99802,
          "sha1": "899651e05d87ab0003a8259bea93d0dcb4d34adf"
        },
        {
          "path": "externals\/images\/color-scheme\/4.png",
          "dir": false,
          "file": true,
          "perms": "0666",
          "size": 98191,
          "sha1": "3fee6127fc46fa2393c5bbd1814b4cd15c4a2cf8"
        },
        {
          "path": "externals\/images\/color-scheme\/5.png",
          "dir": false,
          "file": true,
          "perms": "0666",
          "size": 100767,
          "sha1": "d16bb8cc6551d6d9b1ad63c52d7c17db664790d8"
        },
        {
          "path": "externals\/images\/color-scheme\/6.png",
          "dir": false,
          "file": true,
          "perms": "0666",
          "size": 64958,
          "sha1": "c9af9a49b252c11fa5f520c9dbfdcaae82262587"
        },
        {
          "path": "externals\/images\/color-scheme\/custom.png",
          "dir": false,
          "file": true,
          "perms": "0666",
          "size": 96201,
          "sha1": "55fc8ed497d98b58d659bbfcc6938a527b104145"
        },
        {
          "path": "externals\/images\/forgot.jpeg",
          "dir": false,
          "file": true,
          "perms": "0666",
          "size": 388161,
          "sha1": "9c38ebc13eb0af709360928af4a038124d3bc60d"
        },
        {
          "path": "externals\/images\/login.jpeg",
          "dir": false,
          "file": true,
          "perms": "0666",
          "size": 382035,
          "sha1": "7b80fb4c03b843bc537fc53602a5b7cacdc11f40"
        },
        {
          "path": "externals\/images\/rateus.jpg",
          "dir": false,
          "file": true,
          "perms": "0666",
          "size": 249854,
          "sha1": "612eb1dbc6313ad8c66889d660f695460e814bcc"
        },
        {
          "path": "externals\/scripts",
          "dir": true,
          "file": false,
          "perms": "0777",
          "size": 0,
          "sha1": null
        },
        {
          "path": "externals\/scripts\/.htempty",
          "dir": false,
          "file": true,
          "perms": "0666",
          "size": 0,
          "sha1": "da39a3ee5e6b4b0d3255bfef95601890afd80709"
        },
        {
          "path": "externals\/styles",
          "dir": true,
          "file": false,
          "perms": "0777",
          "size": 0,
          "sha1": null
        },
        {
          "path": "externals\/styles\/admin",
          "dir": true,
          "file": false,
          "perms": "0777",
          "size": 0,
          "sha1": null
        },
        {
          "path": "externals\/styles\/admin\/main.css",
          "dir": false,
          "file": true,
          "perms": "0666",
          "size": 4294,
          "sha1": "2555864deb21bfd709df41288fbe7a7e743d6df0"
        },
        {
          "path": "externals\/styles\/main.css",
          "dir": false,
          "file": true,
          "perms": "0666",
          "size": 0,
          "sha1": "da39a3ee5e6b4b0d3255bfef95601890afd80709"
        },
        {
          "path": "Form",
          "dir": true,
          "file": false,
          "perms": "0777",
          "size": 0,
          "sha1": null
        },
        {
          "path": "Form\/.htempty",
          "dir": false,
          "file": true,
          "perms": "0666",
          "size": 0,
          "sha1": "da39a3ee5e6b4b0d3255bfef95601890afd80709"
        },
        {
          "path": "Form\/Admin",
          "dir": true,
          "file": false,
          "perms": "0777",
          "size": 4096,
          "sha1": null
        },
        {
          "path": "Form\/Admin\/Background.php",
          "dir": false,
          "file": true,
          "perms": "0666",
          "size": 8175,
          "sha1": "0494652f0709aa4502119f068cff7e30118a4bdf"
        },
        {
          "path": "Form\/Admin\/Creategraphic.php",
          "dir": false,
          "file": true,
          "perms": "0666",
          "size": 3811,
          "sha1": "02de0264aabc2ff3689c58426ca624865987973e"
        },
        {
          "path": "Form\/Admin\/Createslide.php",
          "dir": false,
          "file": true,
          "perms": "0666",
          "size": 3606,
          "sha1": "cb57034bf97eb58784cae189bdbe4c6904b561be"
        },
        {
          "path": "Form\/Admin\/CustomTheme.php",
          "dir": false,
          "file": true,
          "perms": "0666",
          "size": 1867,
          "sha1": "fed9f79ac0cb0f0d8870224b12e90c62d74420ba"
        },
        {
          "path": "Form\/Admin\/Global.php",
          "dir": false,
          "file": true,
          "perms": "0666",
          "size": 10772,
          "sha1": "d31c0c6cae46e005e877fe260fa38f5c92c87673"
        },
        {
          "path": "Form\/Admin\/Menu",
          "dir": true,
          "file": false,
          "perms": "0777",
          "size": 0,
          "sha1": null
        },
        {
          "path": "Form\/Admin\/Menu\/Create.php",
          "dir": false,
          "file": true,
          "perms": "0666",
          "size": 4451,
          "sha1": "134c5156cf0a9af171cf69522fa29535ee58046e"
        },
        {
          "path": "Form\/Admin\/Notification.php",
          "dir": false,
          "file": true,
          "perms": "0666",
          "size": 4119,
          "sha1": "886a32c29c614b4f9ec31775e40a9fb49df167c0"
        },
        {
          "path": "Form\/Admin\/Revoked.php",
          "dir": false,
          "file": true,
          "perms": "0666",
          "size": 1293,
          "sha1": "901371a7eab9ee95647e035a91838596e8826533"
        },
        {
          "path": "Form\/Admin\/Styling.php",
          "dir": false,
          "file": true,
          "perms": "0666",
          "size": 31627,
          "sha1": "47ddf7d1f51bd6d884953996c5e7d5784ddaa499"
        },
        {
          "path": "Form\/Admin\/Subscribersearch.php",
          "dir": false,
          "file": true,
          "perms": "0666",
          "size": 1597,
          "sha1": "a0aa35a592ab821934a22ec2a3b9e1bc8ee65e02"
        },
        {
          "path": "Model",
          "dir": true,
          "file": false,
          "perms": "0777",
          "size": 0,
          "sha1": null
        },
        {
          "path": "Model\/Customtheme.php",
          "dir": false,
          "file": true,
          "perms": "0666",
          "size": 483,
          "sha1": "ef0d7bbd76094e75becca969f6b8c156d9db43f3"
        },
        {
          "path": "Model\/DbTable",
          "dir": true,
          "file": false,
          "perms": "0777",
          "size": 4096,
          "sha1": null
        },
        {
          "path": "Model\/DbTable\/.htempty",
          "dir": false,
          "file": true,
          "perms": "0666",
          "size": 0,
          "sha1": "da39a3ee5e6b4b0d3255bfef95601890afd80709"
        },
        {
          "path": "Model\/DbTable\/Customthemes.php",
          "dir": false,
          "file": true,
          "perms": "0666",
          "size": 1068,
          "sha1": "37e299e0f21475587244e2bc969dec2ce8d703c5"
        },
        {
          "path": "Model\/DbTable\/Graphics.php",
          "dir": false,
          "file": true,
          "perms": "0666",
          "size": 892,
          "sha1": "4253422f104fc02c82826f8197534cf7078bf835"
        },
        {
          "path": "Model\/DbTable\/NotificationSettings.php",
          "dir": false,
          "file": true,
          "perms": "0666",
          "size": 2406,
          "sha1": "c4ad6f894d18e082ac38b75527a001376824cdb5"
        },
        {
          "path": "Model\/DbTable\/NotificationTypes.php",
          "dir": false,
          "file": true,
          "perms": "0666",
          "size": 5063,
          "sha1": "3c22061f1a177ea35cd7f73db67ac44704732b25"
        },
        {
          "path": "Model\/DbTable\/Pushnotifications.php",
          "dir": false,
          "file": true,
          "perms": "0666",
          "size": 684,
          "sha1": "32b1ab5f77928ea7a1e99518d82aa9d266b8462c"
        },
        {
          "path": "Model\/DbTable\/Slides.php",
          "dir": false,
          "file": true,
          "perms": "0666",
          "size": 923,
          "sha1": "d18ef33d830fdac67077e140a9d1a5467e27debf"
        },
        {
          "path": "Model\/DbTable\/Themes.php",
          "dir": false,
          "file": true,
          "perms": "0666",
          "size": 671,
          "sha1": "c34fd5e9a4ee72e01f070add563ca3bd34061938"
        },
        {
          "path": "Model\/Graphic.php",
          "dir": false,
          "file": true,
          "perms": "0666",
          "size": 645,
          "sha1": "e353c3e634b0922b411b90362a9c8ad97d6f6f0c"
        },
        {
          "path": "Model\/Slide.php",
          "dir": false,
          "file": true,
          "perms": "0666",
          "size": 645,
          "sha1": "a87758ef357dacec31d525829f12639fd46eb555"
        },
        {
          "path": "Plugin",
          "dir": true,
          "file": false,
          "perms": "0777",
          "size": 0,
          "sha1": null
        },
        {
          "path": "Plugin\/Core.php",
          "dir": false,
          "file": true,
          "perms": "0666",
          "size": 5482,
          "sha1": "29c66e018bf9839e39c6348df4b8070eb44c4545"
        },
        {
          "path": "settings",
          "dir": true,
          "file": false,
          "perms": "0777",
          "size": 4096,
          "sha1": null
        },
        {
          "path": "settings\/install.php",
          "dir": false,
          "file": true,
          "perms": "0666",
          "size": 1518,
          "sha1": "d11c7d1374af0f31010ad8eaca11d68d203d0268"
        },
        {
          "path": "settings\/manifest.php",
          "dir": false,
          "file": true,
          "perms": "0666",
          "size": 1917,
          "sha1": "55f00e18d012776214de0582f852981e27d72e29"
        },
        {
          "path": "settings\/my-upgrade-4.10.3p11-4.10.3p12.sql",
          "dir": false,
          "file": true,
          "perms": "0666",
          "size": 245,
          "sha1": "2326b79d30d4f7ac5c1d2e8c58d26419b2c318f1"
        },
        {
          "path": "settings\/my-upgrade-4.10.3p13-4.10.3p14.sql",
          "dir": false,
          "file": true,
          "perms": "0666",
          "size": 272,
          "sha1": "488909f3c5e9ad3ef4ed20964929e88f43f7dc3b"
        },
        {
          "path": "settings\/my-upgrade-4.10.3p5-4.10.3p6.sql",
          "dir": false,
          "file": true,
          "perms": "0666",
          "size": 823,
          "sha1": "b26dc28d723dedd1d539dddd43f5b5c5dc8de8e5"
        },
        {
          "path": "settings\/my-upgrade-4.10.3p7-4.10.3p8.sql",
          "dir": false,
          "file": true,
          "perms": "0666",
          "size": 2118,
          "sha1": "1e9c9d7ec5bdda9233382c5c0b78ca42c3d0b145"
        },
        {
          "path": "settings\/my-upgrade-4.10.3p9-4.10.3p10.sql",
          "dir": false,
          "file": true,
          "perms": "0666",
          "size": 281,
          "sha1": "f9d674e17c104f2d95b46ae8cf435ef0fdaed665"
        },
        {
          "path": "settings\/my-upgrade-4.9.4p2-4.10.3.sql",
          "dir": false,
          "file": true,
          "perms": "0666",
          "size": 203,
          "sha1": "e5f6ef58b95ca020fad4e7ddaf627fd096fa2227"
        },
        {
          "path": "settings\/my.sql",
          "dir": false,
          "file": true,
          "perms": "0666",
          "size": 890,
          "sha1": "73d96b64794775bf09dd9947c9a640a9fe399fb2"
        },
        {
          "path": "views",
          "dir": true,
          "file": false,
          "perms": "0777",
          "size": 0,
          "sha1": null
        },
        {
          "path": "views\/scripts",
          "dir": true,
          "file": false,
          "perms": "0777",
          "size": 4096,
          "sha1": null
        },
        {
          "path": "views\/scripts\/admin-graphic",
          "dir": true,
          "file": false,
          "perms": "0777",
          "size": 4096,
          "sha1": null
        },
        {
          "path": "views\/scripts\/admin-graphic\/create-graphic.tpl",
          "dir": false,
          "file": true,
          "perms": "0666",
          "size": 2570,
          "sha1": "7a94ba20597eb1d6490d3eb13fff66120b4a2f5f"
        },
        {
          "path": "views\/scripts\/admin-graphic\/delete-graphic.tpl",
          "dir": false,
          "file": true,
          "perms": "0666",
          "size": 1201,
          "sha1": "23096bc01613666e7a94c346bfe3fbe26640642c"
        },
        {
          "path": "views\/scripts\/admin-graphic\/index.tpl",
          "dir": false,
          "file": true,
          "perms": "0666",
          "size": 8137,
          "sha1": "56e79cffc70abe3fba6d9affc50e2cca156cece7"
        },
        {
          "path": "views\/scripts\/admin-menu",
          "dir": true,
          "file": false,
          "perms": "0777",
          "size": 0,
          "sha1": null
        },
        {
          "path": "views\/scripts\/admin-menu\/create.tpl",
          "dir": false,
          "file": true,
          "perms": "0666",
          "size": 994,
          "sha1": "4fa2357bccb027da9fbe4270759c3d9c5ec2b0b8"
        },
        {
          "path": "views\/scripts\/admin-menu\/delete.tpl",
          "dir": false,
          "file": true,
          "perms": "0666",
          "size": 490,
          "sha1": "3edff7b137901d8a5a0ba4d0143f043bfec610f6"
        },
        {
          "path": "views\/scripts\/admin-menu\/index.tpl",
          "dir": false,
          "file": true,
          "perms": "0666",
          "size": 8453,
          "sha1": "7e51b7ff7fc5d41c4cf690e7bc93cf860ef31910"
        },
        {
          "path": "views\/scripts\/admin-menu\/info.tpl",
          "dir": false,
          "file": true,
          "perms": "0666",
          "size": 2272,
          "sha1": "bfaaf0206c02528a62cc59b690ad7eeff5e3afdf"
        },
        {
          "path": "views\/scripts\/admin-pushnotification",
          "dir": true,
          "file": false,
          "perms": "0777",
          "size": 0,
          "sha1": null
        },
        {
          "path": "views\/scripts\/admin-pushnotification\/create.tpl",
          "dir": false,
          "file": true,
          "perms": "0666",
          "size": 9841,
          "sha1": "3bd1d096c695610b19efc9de5839fe199076b93c"
        },
        {
          "path": "views\/scripts\/admin-pushnotification\/delete.tpl",
          "dir": false,
          "file": true,
          "perms": "0666",
          "size": 522,
          "sha1": "8c3bf1891e8679fcc05965dd73934861dd6b7dff"
        },
        {
          "path": "views\/scripts\/admin-pushnotification\/manage.tpl",
          "dir": false,
          "file": true,
          "perms": "0666",
          "size": 4250,
          "sha1": "fc8b03aa5a7121630b4ff8a30ce4e21c687d555b"
        },
        {
          "path": "views\/scripts\/admin-pushnotification\/resend.tpl",
          "dir": false,
          "file": true,
          "perms": "0666",
          "size": 9841,
          "sha1": "2a5ef52dca7eb311ee2e8eb1a2106f733b64e9a5"
        },
        {
          "path": "views\/scripts\/admin-pushnotification\/settings.tpl",
          "dir": false,
          "file": true,
          "perms": "0666",
          "size": 1332,
          "sha1": "961120f23be92ffacf5f7c0f4ed7521398d4db7d"
        },
        {
          "path": "views\/scripts\/admin-settings",
          "dir": true,
          "file": false,
          "perms": "0777",
          "size": 0,
          "sha1": null
        },
        {
          "path": "views\/scripts\/admin-settings\/background.tpl",
          "dir": false,
          "file": true,
          "perms": "0666",
          "size": 2034,
          "sha1": "08265474a42c12c6bf6fc70c11d7adbd84e11033"
        },
        {
          "path": "views\/scripts\/admin-settings\/index.tpl",
          "dir": false,
          "file": true,
          "perms": "0666",
          "size": 1778,
          "sha1": "3ee5e488bb6c80eb8e16562c0471e4e731e9cafc"
        },
        {
          "path": "views\/scripts\/admin-settings\/support.tpl",
          "dir": false,
          "file": true,
          "perms": "0666",
          "size": 2909,
          "sha1": "65ba0256c090d8a00970365f4b91017921e69a99"
        },
        {
          "path": "views\/scripts\/admin-slideshow",
          "dir": true,
          "file": false,
          "perms": "0777",
          "size": 4096,
          "sha1": null
        },
        {
          "path": "views\/scripts\/admin-slideshow\/create-slide.tpl",
          "dir": false,
          "file": true,
          "perms": "0666",
          "size": 2577,
          "sha1": "22f3fe19e5dd802310f3ccb9543d24cf1e7ab6b1"
        },
        {
          "path": "views\/scripts\/admin-slideshow\/delete-slide.tpl",
          "dir": false,
          "file": true,
          "perms": "0666",
          "size": 1197,
          "sha1": "36cb983dd543898ed2b4667a6a8e3b8505f50d27"
        },
        {
          "path": "views\/scripts\/admin-slideshow\/index.tpl",
          "dir": false,
          "file": true,
          "perms": "0666",
          "size": 8373,
          "sha1": "98d46cd596127eb26579dfa00aa4d5f59253c0a4"
        },
        {
          "path": "views\/scripts\/admin-subscribers",
          "dir": true,
          "file": false,
          "perms": "0777",
          "size": 0,
          "sha1": null
        },
        {
          "path": "views\/scripts\/admin-subscribers\/delete.tpl",
          "dir": false,
          "file": true,
          "perms": "0666",
          "size": 522,
          "sha1": "8c3bf1891e8679fcc05965dd73934861dd6b7dff"
        },
        {
          "path": "views\/scripts\/admin-subscribers\/index.tpl",
          "dir": false,
          "file": true,
          "perms": "0666",
          "size": 5354,
          "sha1": "c60e9847d2439acdd2736efdb25f37ba84afa4c1"
        },
        {
          "path": "views\/scripts\/admin-subscribers\/revoked.tpl",
          "dir": false,
          "file": true,
          "perms": "0666",
          "size": 523,
          "sha1": "6868890b0978a57375f9b35b6b71f36b550454ca"
        },
        {
          "path": "views\/scripts\/admin-theme",
          "dir": true,
          "file": false,
          "perms": "0777",
          "size": 4096,
          "sha1": null
        },
        {
          "path": "views\/scripts\/admin-theme\/activated-custom-theme.tpl",
          "dir": false,
          "file": true,
          "perms": "0666",
          "size": 620,
          "sha1": "13a9541e51bcdef94501aec845e925103562bd3c"
        },
        {
          "path": "views\/scripts\/admin-theme\/add-custom-theme.tpl",
          "dir": false,
          "file": true,
          "perms": "0666",
          "size": 494,
          "sha1": "d4c6471ecf9b18ca852294718f005aaf4d54e9cb"
        },
        {
          "path": "views\/scripts\/admin-theme\/delete-custom-theme.tpl",
          "dir": false,
          "file": true,
          "perms": "0666",
          "size": 1059,
          "sha1": "f981a5673207ef8e73bbcc7b4ab08659740b39b4"
        },
        {
          "path": "views\/scripts\/admin-theme\/index.tpl",
          "dir": false,
          "file": true,
          "perms": "0666",
          "size": 5397,
          "sha1": "16397e95970cff6a428eaf910544191ad49dac6f"
        },
        {
          "path": "views\/scripts\/custom_themes.tpl",
          "dir": false,
          "file": true,
          "perms": "0666",
          "size": 1640,
          "sha1": "70c5a683e869c3b0b2d8b59e6c06b3c08f885518"
        },
        {
          "path": "views\/scripts\/dismiss_message.tpl",
          "dir": false,
          "file": true,
          "perms": "0666",
          "size": 371,
          "sha1": "acc47187133d09395295a25440fb7ff27df7fdbf"
        },
        {
          "path": "views\/scripts\/index",
          "dir": true,
          "file": false,
          "perms": "0777",
          "size": 0,
          "sha1": null
        },
        {
          "path": "views\/scripts\/index\/index.tpl",
          "dir": false,
          "file": true,
          "perms": "0666",
          "size": 447,
          "sha1": "4c6c5644913cba84c58a852e371ea48ad278d5d7"
        }
      ]
    },
    "application\/languages\/en\/sesandroidapp.csv": {
      "type": "file",
      "path": "application\/languages\/en\/sesandroidapp.csv",
      "structure": {
        "path": "sesandroidapp.csv",
        "dir": false,
        "file": true,
        "perms": "0666",
        "size": 0,
        "sha1": "da39a3ee5e6b4b0d3255bfef95601890afd80709"
      }
    }
  }
}